<?xml version="1.0" encoding="UTF-8" standalone="no"?> <!-- Created with Vectornator for iOS (http://vectornator.io/) --><!DOCTYPE svg PUBLIC "-//W3C//DTD SVG 1.1//EN" "http://www.w3.org/Graphics/SVG/1.1/DTD/svg11.dtd">
<svg style="fill-rule:evenodd;clip-rule:evenodd;stroke-linecap:round;stroke-linejoin:round;" xmlns:vectornator="http://vectornator.io" xmlns:xlink="http://www.w3.org/1999/xlink" xmlns="http://www.w3.org/2000/svg" xml:space="preserve" version="1.1" viewBox="0 0 841.995 595.35">
<metadata>
<vectornator:setting key="DimensionsVisible" value="1"/>
<vectornator:setting key="SnapToGrid" value="0"/>
<vectornator:setting key="IsolateActiveLayer" value="0"/>
<vectornator:setting key="SnapToPoints" value="0"/>
<vectornator:setting key="GuidesVisible" value="1"/>
<vectornator:setting key="RulersVisible" value="1"/>
<vectornator:setting key="SnapToEdges" value="0"/>
<vectornator:setting key="DisplayWhiteBackground" value="0"/>
<vectornator:setting key="idAngle" value="30"/>
<vectornator:setting key="SnapToGuides" value="0"/>
<vectornator:setting key="GridSpacing" value="36"/>
<vectornator:setting key="Units" value="Millimeters"/>
<vectornator:setting key="DynamicGuides" value="1"/>
<vectornator:setting key="New" value="1"/>
</metadata>
<defs/>
<g id="Calque 1" vectornator:layerName="Calque 1">
<g opacity="1">
<path d="M291.876+162.617L328.346+142.345L363.475+122.383C365.642+121.152+369.255+119.357+371.545+118.374L410.341+101.729C412.631+100.746+416.402+99.3035+418.763+98.5062L464.156+83.1772C466.517+82.3799+468.418+83.7537+468.401+86.2456L467.684+193.488C467.667+195.98+465.854+198.917+463.633+200.048L342.13+261.933C339.909+263.064+337.197+262.178+336.072+259.955L289.969+168.835C288.844+166.612+289.698+163.827+291.876+162.617Z" opacity="1" fill="#4ef53a"/>
<path d="M442.509+99.295L467.028+82.9506L467.801+260.766L468.401+398.926L445.866+398.624L442.509+99.295Z" opacity="1" fill="#4ef53a"/>
<path d="M385.463+414.456C381.439+397.247+396.599+378.989+419.323+373.675C442.047+368.362+463.73+378.005+467.754+395.215C471.778+412.424+456.618+430.682+433.894+435.995C411.17+441.308+389.487+431.665+385.463+414.456Z" opacity="1" fill="#4ef53a"/>
</g>
<path d="M165.246+279.558L170.671+274.351L176.095+269.144L245.73+341.691L315.365+414.237L309.94+419.444L304.515+424.651L234.88+352.105L165.246+279.558Z" opacity="1" fill="#4b4b4b"/>
<path d="M164.743+275.922L183.592+249.882C184.707+248.392+186.748+246.196+188.151+244.976L214.995+219.026C216.398+217.805+218.83+216.047+220.428+215.097L245.488+194.579C247.086+193.629+249.496+191.731+251.383+191.341L275.761+175.24C275.97+174.875+279.46+175.06+280.319+176.71L327.628+267.37C328.487+269.02+327.892+271.135+326.3+272.092L223.1+335.561C221.507+336.519+219.346+336.063+218.273+334.544L164.667+281.37C163.594+279.85+163.628+277.411+164.743+275.922Z" opacity="1" fill="#4b4b4b"/>
<path d="M255.639+442.67C252.33+428.363+264.796+413.185+283.482+408.767C302.169+404.35+319.999+412.367+323.308+426.674C326.617+440.98+314.151+456.159+295.465+460.576C276.778+464.993+258.948+456.976+255.639+442.67Z" opacity="1" fill="#4b4b4b"/>
<path d="M220.06+335.561L226.14+343.355L220.06+335.561Z" opacity="1" fill="#4b4b4b"/>
</g>
</svg>
